…
``` r
month_df = 
    tibble(
        month = 1:12,
        month_name = month.name
    )
precip_df = 
    bind_rows(precip_2018, precip_2017)
precip_df =
    left_join(precip_df, month_df, by = "month")
precip_df
```

    ## # A tibble: 24 x 4
    ##     year month total month_name
    ##    <dbl> <dbl> <dbl> <chr>     
    ##  1  2018     1  0.94 January   
    ##  2  2018     2  4.8  February  
    ##  3  2018     3  2.69 March     
    ##  4  2018     4  4.69 April     
    ##  5  2018     5  9.27 May       
    ##  6  2018     6  4.77 June      
    ##  7  2018     7 10.2  July      
    ##  8  2018     8  6.45 August    
    ##  9  2018     9 10.5  September 
    ## 10  2018    10  2.12 October   
    ## # … with 14 more rows
…
``` r
transit_df = 
    read_csv("./data/NYC_Transit_Subway_Entrance_And_Exit_Data.csv") %>%
    janitor::clean_names() %>% 
  select(-division, -staffing, -staff_hours, -ada_notes, -free_crossover, -north_south_street, -east_west_street, -corner, -entrance_latitude, -entrance_longitude, -station_location, -entrance_location, -exit_only ) %>%
  mutate(entry = recode(entry, "YES" = "TRUE", "NO" = "FALSE"),
         vending = recode(vending, "YES" = "TRUE", "NO" = "FALSE"),
         entry = as.logical(entry),
         vending = as.logical(vending)
  )
transit_df
```

    ## # A tibble: 1,868 x 19
    ##    line  station_name station_latitude station_longitu… route1 route2 route3
    ##    <chr> <chr>                   <dbl>            <dbl> <chr>  <chr>  <chr> 
    ##  1 4 Av… 25th St                  40.7            -74.0 R      <NA>   <NA>  
    ##  2 4 Av… 25th St                  40.7            -74.0 R      <NA>   <NA>  
    ##  3 4 Av… 36th St                  40.7            -74.0 N      R      <NA>  
    ##  4 4 Av… 36th St                  40.7            -74.0 N      R      <NA>  
    ##  5 4 Av… 36th St                  40.7            -74.0 N      R      <NA>  
    ##  6 4 Av… 45th St                  40.6            -74.0 R      <NA>   <NA>  
    ##  7 4 Av… 45th St                  40.6            -74.0 R      <NA>   <NA>  
    ##  8 4 Av… 45th St                  40.6            -74.0 R      <NA>   <NA>  
    ##  9 4 Av… 45th St                  40.6            -74.0 R      <NA>   <NA>  
    ## 10 4 Av… 53rd St                  40.6            -74.0 R      <NA>   <NA>  
    ## # … with 1,858 more rows, and 12 more variables: route4 <chr>, route5 <chr>,
    ## #   route6 <chr>, route7 <chr>, route8 <dbl>, route9 <dbl>, route10 <dbl>,
    ## #   route11 <dbl>, entrance_type <chr>, entry <lgl>, vending <lgl>, ada <lgl>
…
pols_month_df$president = ifelse(pols_month_df$prez_dem == 1, 'dem', 'gop')
pols_month_df = subset(pols_month_df, select = -c(prez_dem, prez_gop)) %>% 
  relocate(year, month, president)

# change month numbers to names
pols_month_df$month = month.name[as.numeric(pols_month_df$month)]
pols_month_df %>% relocate(year, month, president)
```

    ## # A tibble: 822 x 9
    ##     year month     president gov_gop sen_gop rep_gop gov_dem sen_dem rep_dem
    ##    <int> <chr>     <chr>       <dbl>   <dbl>   <dbl>   <dbl>   <dbl>   <dbl>
    ##  1  1947 January   dem            23      51     253      23      45     198
    ##  2  1947 February  dem            23      51     253      23      45     198
    ##  3  1947 March     dem            23      51     253      23      45     198
    ##  4  1947 April     dem            23      51     253      23      45     198
    ##  5  1947 May       dem            23      51     253      23      45     198
    ##  6  1947 June      dem            23      51     253      23      45     198
    ##  7  1947 July      dem            23      51     253      23      45     198
    ##  8  1947 August    dem            23      51     253      23      45     198
    ##  9  1947 September dem            23      51     253      23      45     198
    ## 10  1947 October   dem            23      51     253      23      45     198
    ## # … with 812 more rows

``` r
pols_month_df
```

    ## # A tibble: 822 x 9
    ##     year month     president gov_gop sen_gop rep_gop gov_dem sen_dem rep_dem
    ##    <int> <chr>     <chr>       <dbl>   <dbl>   <dbl>   <dbl>   <dbl>   <dbl>
    ##  1  1947 January   dem            23      51     253      23      45     198
    ##  2  1947 February  dem            23      51     253      23      45     198
    ##  3  1947 March     dem            23      51     253      23      45     198
    ##  4  1947 April     dem            23      51     253      23      45     198
    ##  5  1947 May       dem            23      51     253      23      45     198
    ##  6  1947 June      dem            23      51     253      23      45     198
    ##  7  1947 July      dem            23      51     253      23      45     198
    ##  8  1947 August    dem            23      51     253      23      45     198
    ##  9  1947 September dem            23      51     253      23      45     198
    ## 10  1947 October   dem            23      51     253      23      45     198
    ## # … with 812 more rows
…
``` r
snp_df = 
  read_csv(file = "./data/snp.csv") %>% 
  janitor::clean_names()  %>% 
  separate(date, c("month", "day", "year")) %>% 
  subset(select = -day) %>% 
  relocate(year) %>%
  mutate(year = as.integer(year))

# change month numbers to names
snp_df$month = month.name[as.numeric(snp_df$month)]
snp_df
```

    ## # A tibble: 787 x 3
    ##     year month    close
    ##    <int> <chr>    <dbl>
    ##  1  2015 July     2080.
    ##  2  2015 June     2063.
    ##  3  2015 May      2107.
    ##  4  2015 April    2086.
    ##  5  2015 March    2068.
    ##  6  2015 February 2104.
    ##  7  2015 January  1995.
    ##  8  2014 December 2059.
    ##  9  2014 November 2068.
    ## 10  2014 October  2018.
    ## # … with 777 more rows
…
unemployment_df = 
  read_csv(file = "./data/unemployment.csv") %>% 
  janitor::clean_names() %>%
  mutate( year = as.integer(year))
# change month abbr to full names
colnames(unemployment_df)[2:13] = month.name
unemployment_df = pivot_longer(
  unemployment_df, 
  January:December,
  names_to = "month",
  values_to = "unemployment_rate")
unemployment_df
```

    ## # A tibble: 816 x 3
    ##     year month     unemployment_rate
    ##    <int> <chr>                 <dbl>
    ##  1  1948 January                 3.4
    ##  2  1948 February                3.8
    ##  3  1948 March                   4  
    ##  4  1948 April                   3.9
    ##  5  1948 May                     3.5
    ##  6  1948 June                    3.6
    ##  7  1948 July                    3.6
    ##  8  1948 August                  3.9
    ##  9  1948 September               3.8
    ## 10  1948 October                 3.7
    ## # … with 806 more rows

Join the datasets by merging `snp` into `pols`, and merging
`unemployment` into the result. Key is `year` and `month`.

``` r
merged_df = left_join(pols_month_df, snp_df, by = c("year", "month"))
merged_df = left_join(merged_df, unemployment_df,  by = c("year", "month")) %>%
  relocate(year, month, president, close, unemployment_rate)
merged_df
```

    ## # A tibble: 822 x 11
    ##     year month president close unemployment_ra… gov_gop sen_gop rep_gop gov_dem
    ##    <int> <chr> <chr>     <dbl>            <dbl>   <dbl>   <dbl>   <dbl>   <dbl>
    ##  1  1947 Janu… dem          NA               NA      23      51     253      23
    ##  2  1947 Febr… dem          NA               NA      23      51     253      23
    ##  3  1947 March dem          NA               NA      23      51     253      23
    ##  4  1947 April dem          NA               NA      23      51     253      23
    ##  5  1947 May   dem          NA               NA      23      51     253      23
    ##  6  1947 June  dem          NA               NA      23      51     253      23
    ##  7  1947 July  dem          NA               NA      23      51     253      23
    ##  8  1947 Augu… dem          NA               NA      23      51     253      23
    ##  9  1947 Sept… dem          NA               NA      23      51     253      23
    ## 10  1947 Octo… dem          NA               NA      23      51     253      23
    ## # … with 812 more rows, and 2 more variables: sen_dem <dbl>, rep_dem <dbl>
…
